…
``` r
d0_follow %>% 
  count(percent_mother) %>% 
  arrange(desc(n))
```

    ## # A tibble: 30 x 2
    ##    percent_mother     n
    ##             <dbl> <int>
    ##  1            100    23
    ##  2             95     7
    ##  3             80     5
    ##  4             75     4
    ##  5             70     3
    ##  6             90     3
    ##  7             99     3
    ##  8             40     2
    ##  9             45     2
    ## 10             86     2
    ## # … with 20 more rows
…
